7 1.01746445031 5.54651247679 4.75973529116
8 0.127457384731 3.50319861801 7.6668777141
9 0.646410614913 3.61567475783 6.61362549581
12 -0.268736434706 6.67529500387 3.57262579692
23 0.388910632576 3.47536209147 6.45751546561
25 0.990109143215 4.36363032649 5.9897132071
26 -0.914016580279 5.91117953891 1.68450180502
27 0.0569897416539 2.8412669876 5.94271597648
33 1.3883741137 -0.000852147816488 4.72092326438
37 0.410946012939 2.72885232232 6.96146573227
39 0.458102836657 2.66916864706 4.51577660344
45 -0.670977552402 3.37211127951 2.51945113988
47 -0.0199469761972 4.41320652116 6.76885078656
51 0.439376145323 4.02381946978 7.89289636526
52 0.699970618094 4.64713672811 4.70110002427
57 0.037325741697 4.06590115196 5.28548662248
58 0.236320483707 0.0927303561537 3.33134178888
65 1.02296621476 5.53099820998 5.67465737145
67 1.44540515496 2.73477479546 3.21147091868
68 0.275876000865 5.04928849148 4.44203505107
70 -0.893842615989 2.94020331622 6.21710299655
71 0.25179655067 5.46258967799 6.15698176069
73 2.89310657725 1.27030742295 4.11270057932
74 -0.75026109425 -4.101943085 2.44423350252
75 0.282507853562 -1.3628233965 4.01300081003
78 -2.45056191437 -2.35948934842 4.79046958863
79 0.659583639001 4.97363667422 7.14923040883
81 -0.31918766871 7.22341814061 4.01552762478
87 1.59108200469 6.76817736062 4.61479535924
89 0.890662057652 4.94454864332 7.01664514895
90 -3.01475657134 6.90643632174 3.03817258847
91 1.11225549983 5.07956605425 3.57705989293
92 -0.427592599842 6.81469549739 2.84105812389
94 -1.87664093844 7.24231036012 0.6615388938
95 0.780438612438 6.11053098183 5.35858404329
96 0.0217203854188 7.29467093838 5.05279875661
99 -3.01096822893 3.78055521014 6.90250928967
104 -0.813455780594 4.70400561888 7.04077002534
105 -1.14675093842 5.94389119563 4.29514790173
108 -0.491984138556 6.77584928668 -1.00666313919
110 1.02615363927 3.44524487502 2.43449122818
111 0.275797358907 7.58822929608 5.24106413872
116 0.638841600561 5.06316062602 4.78658576859
117 0.97543285368 6.13390024749 6.46839520609
120 1.55298722599 3.89339538725 3.75814234897
122 -2.13377475695 -3.75077730697 15.2663235675
124 1.51591516748 8.52369578441 0.822670519048
126 -1.65749266838 3.27257142222 11.6553647488
127 4.01364032261 1.12653070977 7.98957273643
129 1.16653394625 7.48527376305 3.0670518655
134 0.329061102155 6.9217101867 2.82121826022
137 -2.5374145156 2.45233032998 7.36063622195
142 -0.24494047491 7.34395113997 1.70915554231
145 1.53009815854 5.31963296187 5.94339947065
148 0.775934966115 6.60862034558 3.09008887791
149 1.40830895146 7.71419475896 -2.24445247138
152 -2.3357129311 6.6178332968 -1.75032210446
156 1.59831633453 5.639004916 1.05987528647
157 0.179014041949 -1.27350517345 3.1014551884
158 0.02711381217 2.12484682891 7.99831607008
159 -0.337422231664 6.87668872446 -0.193008115999
162 2.0481550044 5.61096210513 3.14468591967
163 2.17330103134 3.68518967496 3.02168949002
168 5.66665405347 5.15878900108 3.01428566237
169 -2.81317178004 3.20207565982 0.0445143078016
174 -1.11163961397 7.39352652366 4.96548184284
175 7.86514083738 -0.252973083894 -2.21533506877
177 6.07729561722 -0.549091384576 3.92613340821
183 3.39177672245 2.80324199236 4.25872622435
187 0.703678250298 5.07817341584 6.29302106858
188 1.96589594233 2.4085320228 3.09462704012
189 0.180070403174 3.50845077619 7.4109167793
190 -1.23206996604 6.33031900567 4.67993966341
194 -7.02799354728 -0.722581731197 1.04021259566
196 -1.30072957743 3.98231981725 -2.28365703012
204 2.17964607778 2.27112064635 7.99074291877
206 0.986364806357 6.07793242778 6.70807964121
207 2.37859379882 6.12706930892 3.6187157074
211 -0.514987494958 2.49206282249 8.26661069749
213 2.01303659805 -0.59231116625 7.89285662514
216 -1.63776073667 6.81265709754 6.4579469985
219 0.693576477332 1.66578169549 2.18408863296
222 1.3649667272 7.24224693295 4.26214199591
224 2.67452119998 2.70989774047 6.19263782191
229 -0.324780104786 8.42741468382 3.83386685961
232 2.17437568881 8.22644445706 0.654572778629
233 0.868945861944 5.15835471125 5.48964167759
234 1.10529013186 6.09772577445 4.67241843329
236 3.29589667649 -4.90855428801 2.20931654396
237 0.358566171362 -1.49691323849 7.3548214687
239 -0.415830360264 -3.66810477446 11.2072810104
240 0.268380844462 1.60168316139 8.52030440865
261 3.15958339519 1.58650474221 2.02823938318
263 -6.09145050046 1.25126025533 6.24234328136
268 0.558854097895 -1.66154426707 0.940275083577
269 2.58383758734 2.47426824906 4.64249199293
270 -0.0404055249379 4.82356973218 7.11364579908
271 0.0250539919791 4.49702845023 6.10700264221
273 -0.0559134599166 4.46075768691 7.264360362
274 0.2077279246 3.1533137114 4.75355043482
275 -0.791714946311 -2.38028372758 6.77520562898
277 2.76514950996 7.74804042693 -1.42031528302
281 3.90407924191 -2.63036803013 8.28592790421
282 -2.72545506615 2.02914088677 2.79720144312
283 2.44276255995 4.4300051412 3.04056440051
284 3.17001128399 4.13188622367 1.93754510235
285 -0.408771721731 0.152583761383 -8.87300129864
289 2.92028339006 0.896775308377 7.3867524637
290 0.87107943712 5.83030575127 5.97538994939
291 -0.597150578522 1.03999307025 0.984567559849
294 -3.27292175755 0.810967238081 8.73278695928
296 1.99845422975 4.8115816317 6.90810623702
297 0.253659622409 3.48202638874 4.88305537768
298 0.901847700988 6.21432953339 6.26369223252
299 -0.216322492625 -2.33016207479 -2.06430761484
302 -0.283565028613 -1.71729276997 -7.26697604485
306 3.90887983686 7.68109920659 2.40333283642
309 0.817908909281 4.10713256021 1.91818366748
312 0.154041523853 3.21629397284 0.289031040775
313 -0.0181394112345 -3.81197115397 10.4758888698
314 6.78714053867 1.67483495297 1.83121120503
323 0.307637134117 4.53711879761 6.4483784349
325 0.866203434197 0.545691114274 1.6462433816
333 5.86718171591 -1.7615260768 2.54163941587
335 2.39080303055 5.69312350496 6.11911670406
338 1.29333213717 6.45407706358 2.69778087306
341 1.82959532934 2.58007107919 8.30032165542
343 0.713548810609 6.09660429658 8.1166685067
344 2.26640234549 2.70549949715 6.05663068875
345 -3.53144638294 0.76676770318 5.95327194676
350 1.40523805285 5.97219215816 4.42592970933
360 -0.0786835842682 7.19915827162 5.9038453425
361 1.18910826343 3.57372623906 7.6783937716
366 1.66635249453 3.28572516678 5.28391216943
369 0.848569695714 5.73002432258 4.9836568859
370 2.4225099797 6.12029303934 3.09450247101
371 1.20284738094 1.59654706029 7.15219045225
376 -0.493781397672 2.21414437397 4.2740694005
378 1.33113404445 7.80584534418 1.57364389598
381 -2.62254448777 3.42025870891 6.70927468373
390 2.17431416329 3.40374014305 6.67288073994
394 0.0570939528032 3.47909080137 4.8008622604
398 -0.653805356707 5.14726960626 6.96934587254
399 0.528575452751 5.9183876808 4.37476629932
401 -0.724336393942 4.7697209981 8.51438041855
404 -0.452681450831 2.54636135148 8.82794618583
411 2.31325177719 2.77540961591 6.64022153438
412 4.4932593896 0.0695229169534 9.1195698904
413 4.2516442642 6.17094570692 0.322305589364
415 8.13842690354 -0.949632663468 5.8968738145
417 1.04633911791 4.05652583703 6.08477553809
421 5.18699894214 -2.07455177661 6.6167319236
422 0.388785794364 -3.66419195117 13.4354447337
423 3.37430371235 -5.58202834125 10.4318713237
425 -0.702632497626 4.8943142579 8.22851665657
433 0.155936081402 0.613199767328 9.52252718094
438 1.98971452731 1.64064575261 4.32228091881
447 -0.237546839616 7.99859095117 -0.0637182166952
448 3.58077109191 1.88117558387 2.53245839426
455 -0.902702670315 0.295714462784 13.2373244411
461 -0.152281148871 2.69701752089 7.19889071368
463 2.79749351152 2.72318104343 4.50811702794
466 2.59316692547 6.87868386011 -3.37474559629
471 -1.48061351182 5.27683590346 7.15418198433
473 -1.82163773207 2.86773908809 4.83703124195
477 1.0467516038 3.48381965735 3.66667180802
478 0.0060096954161 6.37905831517 6.38282181991
479 1.21012410296 7.88083844819 1.8961357816
482 -1.90166003398 2.74375896133 4.86946667228
485 -1.73121407568 1.00266869512 5.69953563065
486 1.9065975335 3.21333149041 5.72311881846
487 0.309763555509 6.30550507281 4.08605791229
491 2.67704270442 3.23780531633 3.3041632329
492 -0.919639875761 7.3898637758 3.03022838004
494 7.02268823878 -6.73787775216 -0.0308872206248
501 5.47799566845 1.30135986356 -0.792750497339
503 -4.66889845723 5.08159575872 1.76412911579
505 4.88526663089 -0.260833697752 7.65963312961
507 0.127257515122 4.45100765767 7.1055961485
509 -1.83755395027 5.43217367538 5.4915215545
514 -0.0484768021933 4.04253275903 6.41583322707
515 -0.300532300421 4.02352541343 7.92027485203
518 1.46926149508 4.88142491277 5.86118118728
520 1.08606672838 2.93020799854 7.91785981292
523 0.521007782351 5.91738539045 5.31062042651
524 -0.441419796589 3.33375357614 7.247743001
528 0.29383986082 7.67524878541 4.40177717808
531 0.159106188991 3.38453703675 5.8695606828
533 -0.361004348618 -5.45232454515 13.115961739
534 -0.123970135578 0.850652568588 -6.19541707996
536 -0.0532321125763 5.74621789208 5.53529571049
537 2.10176540323 8.71070458361 0.533425289398
539 -0.783931399456 2.81130083856 7.76366639424
547 -1.10523842665 6.33904166445 6.30187971312
550 -1.61207937506 0.773805851774 6.90407301531
552 0.722377212303 6.02766749359 4.27145265789
553 -1.19137128334 4.11020418435 6.73670584028
554 1.53827257214 3.38450419463 3.90377821003
556 -1.48831016659 5.49313457153 7.85048127464
557 -0.112688632361 -2.57952396553 10.0862413681
562 -0.0219272911008 5.04887319351 3.6741737539
568 0.257183062319 4.50513570084 7.07833366769
571 -1.19425585603 5.69059264902 7.9291440678
573 -0.330685850318 9.63299693963 -0.148109186605
574 0.680697194645 4.0696561554 5.67371769442
575 1.68454147265 1.47627285295 7.06647364154
577 -0.0785976320956 -3.41471240894 9.74470788311
579 -0.279681484577 5.49700795046 4.33240934177
580 0.25674776538 5.95448496446 5.42383914421
581 -2.93387890986 -3.94770464605 12.5190658073
583 -1.15979638096 0.358775078791 5.12120736057
589 0.196669190537 4.65217231142 7.17908481843
593 -5.39732530887 1.97824569733 1.20463430887
594 0.504649339574 2.07986478506 5.53142950443
595 2.12212766252 3.07182820313 2.09629470464
596 1.20050533045 4.92958999404 3.9966148455
600 3.3573509231 7.15374189732 -3.31340111322
601 -2.2547973969 -6.31026396821 17.1927094038
607 1.05946343185 5.77679853341 3.67584230799
610 -1.08673982631 7.01300054283 3.27296771749
611 0.537902450674 5.75964070162 -0.395160931623
612 0.27589330534 7.21572336049 5.11224033867
613 -0.95671995751 3.62343484263 7.16496675823
614 0.147750744432 2.71227393337 4.72158328062
617 3.33580848473 2.59512645686 1.7546268642
621 -1.56171131873 3.16096363197 7.53803879932
622 2.12233085135 1.34955093932 6.60457888234
626 2.42223612258 2.6965274376 6.30213375426
627 -2.21947645516 -3.57275506395 7.20344581798
629 3.19913589368 1.07969330842 4.4768584349
632 -0.150591807957 3.1999564071 5.44302175273
634 -0.0828181079285 4.54649644827 8.6643360352
638 0.0233537087818 3.4343251895 8.37455162796
640 -2.59923731405 1.19015346952 6.2874482439
642 0.110314079494 6.48260324454 6.72203183302
643 5.60209295637 1.81235820714 5.97582558878
646 2.33273255204 2.10855678842 5.85284628781
647 0.45675945439 4.18051777969 3.08975834176
650 0.957294108006 2.70021384971 4.99990144369
653 0.323280320782 6.37603175494 6.82592341301
656 1.51001483871 6.83175626315 4.14572404874
658 -0.460721535245 2.52760498288 8.84155675848
660 -0.541369572053 4.78977955148 2.32579592905
661 0.653982929317 4.87546835172 4.29006094207
663 2.10270732109 3.83709566607 1.21105543262
664 -0.417616204979 6.09390400954 4.10081685269
665 -0.623996658879 3.93132934565 5.42990385498
666 3.12639716374 -2.76836626757 7.44647317395
667 0.110843544484 0.979527873478 8.0195768453
669 -0.225549499224 6.42135096246 -3.26269245624
670 1.21514495946 7.82772050009 5.35077843146
671 -2.25583457315 6.1057963221 0.982221361833
674 1.89884274119 0.206200644481 0.6607708706
675 4.30858745168 1.87564920986 4.29412823722
676 -1.09113668541 6.97091737806 5.64656396027
678 0.037722623849 3.68188802457 8.36452855977
679 0.354366747907 6.31425263139 1.51711428146
680 -3.39822578848 1.04073978513 3.04812249739
681 3.1390552198 2.62880337457 3.11361917351
682 0.299587201318 6.84667027287 4.3912437814
683 -1.57389001675 7.20601700604 5.34437418968
684 -0.928124531423 3.40931443259 4.47960544705
687 -0.215527511632 4.31949160601 7.95910618135
688 -0.0829750460857 3.67161124635 6.44644842238
690 -0.138022223826 8.02016025558 6.09119093967
691 -0.243840047721 6.58775676695 2.8373565199
692 -0.230976829736 6.5672689266 6.47897069948
694 1.42372791092 3.10722140315 7.87006700031
696 2.32306696429 2.50672544801 8.55733288201
698 1.36344817952 3.94757512405 2.65458549377
699 3.30094253562 0.085079689287 3.38853745723
700 9.83969676846 7.07382917139 11.2221411139
703 1.62885773534 8.77861285894 0.455395200983
705 1.61276228115 4.66472970463 5.43330147726
706 1.81256369043 3.8552129094 7.66598937626
709 -0.395876759162 3.36915642163 6.44285980015
710 0.48215127057 2.55847803483 7.39599943679
711 -1.35909988367 5.65589127092 2.98061680966
713 -0.870027402761 3.78662939671 3.65061658076
714 0.461922105589 3.81668663706 6.11975041848
720 0.247172933089 2.92016115949 4.06752892478
721 -2.20830822724 2.38043334377 6.95478786809
722 0.883541297997 2.22879721508 8.4415809879
727 0.20938028205 2.46441232233 8.05356788577
728 2.37852733055 4.7403628457 2.56325869137
729 0.140928516662 1.73520840438 1.89068268712
730 1.97839094987 1.73941046075 8.70688263852
732 1.60974566001 4.79761788919 4.01371707191
735 1.47394353933 5.46301195773 5.63534789514
736 0.265128141954 2.42597239153 6.02418353438
738 -0.198089324933 5.41456208916 1.4680676402
739 -0.80179199755 5.41798714897 5.96001008076
745 0.420105409792 1.42378635718 4.95818277716
746 3.5041021232 3.94315345593 6.24924451856
750 -0.799042979218 1.61258056876 4.89723112418
751 -0.52285593326 3.27425041402 2.69990485059
754 -4.88318630973 2.41545399396 4.09586115879
755 5.46860569967 3.00427300473 -0.642721831456
757 3.84528509981 4.18845347649 3.78085262505
761 0.387506250399 4.5918139577 6.28705943218
762 0.035278679027 2.62270747588 4.80878006968
763 4.25831188384 5.00417019099 3.4165758863
764 -0.16783169364 -1.50939896415 2.70859315441
768 1.25512393205 3.22357018192 3.67375554507
770 7.68928359602 1.59058180098 -3.21681400178
774 -1.57915425714 -1.59809841198 3.5256367077
776 -1.31880589643 3.80690930844 7.75632398008
781 -1.2914785779 1.96881977419 7.07213152944
782 -0.41967168989 -3.86987758835 12.2403660927
784 -0.343277309375 6.65212809782 4.05811358918
789 0.0497862519393 2.90244246554 5.58872539683
792 3.15767026888 2.97912038572 1.8358898491
793 3.13989954213 3.99012549383 6.40047227023
795 -0.560745618176 4.85986843506 -0.303667493565
801 0.919265067542 3.79375865412 7.25259068323
802 -0.414362260835 4.18079555715 8.43942119556
804 -0.359540472962 -4.30897985623 17.5361438765
805 -1.31779796469 -0.0323284110941 10.2954359127
806 -2.18026413197 3.04691276056 0.298430042763
810 0.365860192706 4.07619875313 4.41546961599
812 -0.765213141294 8.71318016131 2.44921681893
814 0.296046824851 4.27875412596 5.39561702071
818 -0.821718324428 4.02537930731 6.42814208433
820 0.0747321041929 4.62629451103 6.68077197066
823 0.0616771759859 5.08394984904 7.99791830385
824 -0.131820026171 3.81265950995 7.49393589242
827 -0.210644695337 0.45316106758 9.96909084422
834 3.00713504511 2.22554510618 6.38419659228
836 5.5448601561 1.16532338427 4.94638414547
838 -0.169773809999 0.274704396949 8.52926373676
839 -2.58182039877 2.62806956842 6.9030244813
841 1.09407542029 5.96574999345 4.71913638174
842 0.0363514634466 0.913440404699 8.05273027433
846 2.7982571625 3.50406855162 6.13005278901
847 -0.303281909827 4.00898307479 8.1291168268
848 -0.319048680582 1.95307936705 7.38624095815
854 -0.449719962584 8.00599310253 1.43554509529
857 4.81528694118 3.75255475147 6.53236876651
859 -3.06987539101 1.77066806954 6.76749302786
860 2.67383333804 2.09411437953 7.17857210894
862 -0.0988308168799 3.73626169486 8.55306313915
864 -4.29360697382 6.36336602961 1.67513419298
868 7.78655447438 1.09285808704 0.867913890765
870 -0.120887710512 6.03341487321 6.01443395407
871 1.69256073311 -2.13148839897 3.99801075418
877 0.314974922143 4.02411815106 7.21789250201
880 0.944702172337 4.07667920382 4.66198413245
882 2.73267442545 4.41550967368 3.45963874811
883 1.61361680358 4.41417153617 5.86775886515
887 -0.180641377071 1.59154777576 3.27351159563
890 -0.869279068887 1.19069553011 5.82805901169
895 4.35015184454 1.95971337405 4.30384114083
897 1.17520475151 2.02671509512 4.29340441621
900 1.19459273278 4.90472932942 6.83678816073
911 0.60053499914 1.84978894161 9.51160603978
912 -0.0784882049173 4.20992913306 6.98866023376
913 -1.34933300306 0.129052433336 1.11725872437
919 8.02129716561 0.67430495209 0.786015248079
933 1.14186316924 9.26489993156 -1.18548339792
941 -0.325064936337 2.62868861458 4.47337670577
943 -0.222180418656 4.10728247633 5.40620628413
945 0.40960352061 -1.98777809948 4.54992892579
953 0.310759207013 2.83236078282 7.87053767524
955 -0.751733303438 6.96417461134 6.92977121325
956 0.593161001041 7.7191975718 1.96157126736
967 0.826016211841 4.20550267566 5.45126782958
973 -1.56130800988 0.44676185369 2.0688195728
977 2.26305586405 3.5538470292 6.64495424829
979 0.565498280469 2.01477873002 7.67360347232
983 0.701019510322 6.66875884053 5.64612597561
987 0.377062151595 7.29166647538 5.10393567834
991 -0.258687647297 3.01980836133 5.47773264005
992 -0.131534286758 3.92400645989 3.07055401792
996 -1.02248710922 5.82191455307 3.67122328489
997 0.26415072183 6.40858219449 3.14323015317
998 -0.334029013987 3.0095948548 9.18551250245
1000 -1.05476296974 3.75584738584 6.20477975857
1006 0.87303203084 2.36359470514 7.17608974639
1015 -0.830768726927 6.75713318238 3.79743090761
1017 1.22144992808 9.27559444041 1.9060295559
1027 -0.48979844541 -1.94748850217 1.59577710485
1029 0.95887535287 1.34575638784 6.30370162938
1031 -0.355383155975 8.50557117637 0.441920308587
1033 -0.64738991285 0.73822580701 1.97139868453
1035 -2.22825017071 1.84675841756 2.82489884424
1036 -0.182223494085 -0.128050104473 1.79558067743
1037 2.40146378293 1.71557427368 2.48553418368
